…
``` r
div_list %>% 
  map_dfr(extract, c(1, 2))
```

    ## Error: Argument 2 must be length 1, not 2

For some reason, that call isn’t working? It seems the same as this, no?

``` r
got_chars %>% 
  map_dfr(extract, c(1, 2, 3, 4, 5))
```

    ## # A tibble: 30 x 5
    ##    url                                         id name            gender culture
    ##    <chr>                                    <int> <chr>           <chr>  <chr>  
    ##  1 https://www.anapioficeandfire.com/api/c~  1022 Theon Greyjoy   Male   Ironbo~
    ##  2 https://www.anapioficeandfire.com/api/c~  1052 Tyrion Lannist~ Male   ""     
    ##  3 https://www.anapioficeandfire.com/api/c~  1074 Victarion Grey~ Male   Ironbo~
    ##  4 https://www.anapioficeandfire.com/api/c~  1109 Will            Male   ""     
    ##  5 https://www.anapioficeandfire.com/api/c~  1166 Areo Hotah      Male   Norvos~
    ##  6 https://www.anapioficeandfire.com/api/c~  1267 Chett           Male   ""     
    ##  7 https://www.anapioficeandfire.com/api/c~  1295 Cressen         Male   ""     
    ##  8 https://www.anapioficeandfire.com/api/c~   130 Arianne Martell Female Dornish
    ##  9 https://www.anapioficeandfire.com/api/c~  1303 Daenerys Targa~ Female Valyri~
    ## 10 https://www.anapioficeandfire.com/api/c~  1319 Davos Seaworth  Male   Wester~
    ## # ... with 20 more rows
