…
    ## gapminder$country
    ## Afghanistan     Albania     Algeria      Angola   Argentina   Australia 
    ##   0.9735051   0.9542420   0.9925307   0.9422392   0.9977816   0.9897716

  - **tidyverse**

<!-- end list -->

``` r
gapminder %>% 
  group_by(country) %>% 
  summarise(cor = cor(lifeExp, year))
```

    ## # A tibble: 142 x 2
    ##    country       cor
    ##    <fct>       <dbl>
    ##  1 Afghanistan 0.974
    ##  2 Albania     0.954
    ##  3 Algeria     0.993
    ##  4 Angola      0.942
    ##  5 Argentina   0.998
    ##  6 Australia   0.990
    ##  7 Austria     0.996
    ##  8 Bahrain     0.983
    ##  9 Bangladesh  0.995
    ## 10 Belgium     0.997
    ## # ... with 132 more rows
…
  - **Extracting and including fit values**

<!-- end list -->

``` r
nested_df %>% 
  mutate(
    coefs = map(fit, coef),
    intercept = map_dbl(coefs, 1),
    slope = map_dbl(coefs, 2)
    ) %>% 
  select(country, continent, intercept, slope)
```

    ## # A tibble: 142 x 4
    ## # Groups:   country, continent [710]
    ##    country     continent intercept slope
    ##    <fct>       <fct>         <dbl> <dbl>
    ##  1 Afghanistan Asia          -508. 0.275
    ##  2 Albania     Europe        -594. 0.335
    ##  3 Algeria     Africa       -1068. 0.569
    ##  4 Angola      Africa        -377. 0.209
    ##  5 Argentina   Americas      -390. 0.232
    ##  6 Australia   Oceania       -376. 0.228
    ##  7 Austria     Europe        -406. 0.242
    ##  8 Bahrain     Asia          -860. 0.468
    ##  9 Bangladesh  Asia          -936. 0.498
    ## 10 Belgium     Europe        -340. 0.209
    ## # ... with 132 more rows
…
